Repo,Mapping,Class Comments,Method Comments,Field Comments,Spelling,Grammar,Total
Project1_csc216-001-P1-002/,2,2,1,3,3,3,12
Project1_csc216-001-P1-003/,3,2,3,1,3,3,12
Project1_csc216-001-P1-004/,4,1,1,0,1,1,4
Project1_csc216-001-P1-005/,5,2,3,3,3,3,14
Project1_csc216-001-P1-007/,6,1,3,3,3,3,13
Project1_csc216-001-P1-008/,7,1,2,3,3,3,12
Project1_csc216-001-P1-009/,8,2,2,3,3,3,13
Project1_csc216-001-P1-010/,9,2,2,3,3,3,13
Project1_csc216-001-P1-011/,10,2,2,0,3,3,10
Project1_csc216-001-P1-012/,11,0,2,0,3,3,8
Project1_csc216-001-P1-013/,12,3,3,3,3,3,15
Project1_csc216-001-P1-014/,13,2,2,2,3,3,12
Project1_csc216-001-P1-015/,14,2,2,3,3,3,13
Project1_csc216-001-P1-016/,15,3,3,3,3,3,15
Project1_csc216-001-P1-017/,16,3,3,3,3,3,15
Project1_csc216-001-P1-018/,17,3,3,3,3,3,15
Project1_csc216-001-P1-019/,18,3,3,3,3,3,15
Project1_csc216-001-P1-020/,19,1,1,1,3,3,9
Project1_csc216-001-P1-021/,20,1,2,3,3,3,12
Project1_csc216-001-P1-022/,21,1,1,3,3,3,11
Project1_csc216-001-P1-023/,22,1,2,3,3,3,12
Project1_csc216-001-P1-024/,23,1,1,1,3,3,9
Project1_csc216-001-P1-025/,24,2,3,3,3,3,14
Project1_csc216-001-P1-026/,25,3,3,2,3,3,14
Project1_csc216-001-P1-027/,26,1,1,3,3,3,11
Project1_csc216-001-P1-028/,27,3,2,3,3,3,14
Project1_csc216-001-P1-029/,28,2,3,3,3,3,14
Project1_csc216-001-P1-030/,29,3,3,3,0,0,9
Project1_csc216-001-P1-031/,30,3,3,3,3,3,15
Project1_csc216-001-P1-032/,31,3,2,2,3,3,13
Project1_csc216-001-P1-033/,32,1,3,1,3,2,10
Project1_csc216-001-P1-034/,33,3,2,1,3,3,12
Project1_csc216-001-P1-036/,35,2,2,3,3,3,13
Project1_csc216-001-P1-037/,36,2,2,3,3,3,13
Project1_csc216-001-P1-038/,37,3,3,3,3,3,15
Project1_csc216-001-P1-039/,38,2,2,3,3,3,13
Project1_csc216-001-P1-040/,39,3,3,3,3,3,15
Project1_csc216-001-P1-041/,40,2,2,3,3,3,13
Project1_csc216-001-P1-042/,41,2,2,3,3,3,13
Project1_csc216-001-P1-043/,42,3,3,3,3,3,15
Project1_csc216-001-P1-044/,43,3,2,3,3,3,14
Project1_csc216-001-P1-045/,44,3,2,3,3,3,14
Project1_csc216-001-P1-046/,45,2,2,3,3,3,13
Project1_csc216-001-P1-047/,46,3,2,3,3,3,14
Project1_csc216-001-P1-048/,47,2,2,3,3,3,13
Project1_csc216-001-P1-051/,48,3,3,3,3,3,15
Project1_csc216-001-P1-052/,49,1,3,3,3,3,13
Project1_csc216-001-P1-053/,50,3,2,2,3,3,13
Project1_csc216-001-P1-054/,51,3,2,3,3,3,14
Project1_csc216-001-P1-055/,52,3,3,2,3,3,14
Project1_csc216-001-P1-057/,53,3,3,3,3,3,15
Project1_csc216-001-P1-058/,54,3,3,2,3,3,14
Project1_csc216-001-P1-059/,55,3,3,2,3,3,14
Project1_csc216-001-P1-061/,57,3,2,2,3,3,13
Project1_csc216-001-P1-062/,58,1,1,1,1,1,5
Project1_csc216-001-P1-063/,59,3,2,2,3,3,13
Project1_csc216-001-P1-064/,60,3,3,3,3,3,15
Project1_csc216-001-P1-065/,61,3,2,2,3,3,13
Project1_csc216-001-P1-067/,63,3,3,3,3,3,15
Project1_csc216-001-P1-068/,64,3,3,3,3,3,15
Project1_csc216-001-P1-069/,65,3,3,3,3,3,15
Project1_csc216-001-P1-070/,66,3,3,3,3,3,15
Project1_csc216-001-P1-071/,67,3,3,3,3,3,15
Project1_csc216-001-P1-072/,68,3,3,3,3,3,15
Project1_csc216-001-P1-073/,69,3,3,3,3,3,15
Project1_csc216-001-P1-074/,70,3,3,3,3,3,15
Project1_csc216-001-P1-075/,71,3,3,3,3,3,15
Project1_csc216-001-P1-076/,72,3,3,3,3,3,15
Project1_csc216-001-P1-077/,73,3,3,3,3,3,15
Project1_csc216-001-P1-078/,74,3,3,3,3,3,15
Project1_csc216-001-P1-079/,75,3,3,3,3,3,15
Project1_csc216-001-P1-080/,76,3,3,3,3,3,15
Project1_csc216-001-P1-081/,77,3,3,3,3,3,15
Project1_csc216-001-P1-083/,78,3,3,3,3,3,15
Project1_csc216-001-P1-084/,79,3,3,3,3,3,15
Project1_csc216-001-P1-085/,80,3,3,3,3,3,15
Project1_csc216-001-P1-086/,81,3,3,3,3,3,15
Project1_csc216-001-P1-087/,82,3,3,3,3,3,15
Project1_csc216-001-P1-088/,83,3,3,3,3,3,15
Project1_csc216-001-P1-089/,84,3,3,3,3,3,15
Project1_csc216-001-P1-090/,85,3,3,3,3,3,15
Project1_csc216-001-P1-091/,86,3,3,3,3,3,15
Project1_csc216-001-P1-092/,87,3,3,3,3,3,15
Project1_csc216-001-P1-093/,88,3,3,3,3,3,15
Project1_csc216-001-P1-094/,89,1,1,0,2,2,6
Project1_csc216-001-P1-096/,90,3,3,3,3,3,15
Project1_csc216-001-P1-097/,91,2,2,3,3,3,13
Project1_csc216-001-P1-098/,92,3,3,3,3,3,15
Project1_csc216-001-P1-099/,93,3,3,2,3,3,14
Project1_csc216-001-P1-100/,94,3,3,2,3,3,14
Project1_csc216-001-P1-101/,95,0,0,0,0,0,0
Project1_csc216-001-P1-102/,96,2,2,2,2,2,10
Project1_csc216-001-P1-103/,97,2,3,3,3,3,14
Project1_csc216-001-P1-104/,98,2,2,3,3,3,13
Project1_csc216-001-P1-107/,100,1,3,0,3,3,10
Project1_csc216-001-P1-109/,101,2,2,3,3,3,13
Project1_csc216-001-P1-110/,102,2,3,2,3,3,13
Project1_csc216-001-P1-111/,103,2,2,1,3,3,11
Project1_csc216-001-P1-112/,104,3,2,2,3,3,13
Project1_csc216-001-P1-113/,105,3,2,3,3,3,14
Project1_csc216-001-P1-114/,106,3,2,3,3,3,14
Project1_csc216-001-P1-115/,107,3,3,3,3,3,15
Project1_csc216-001-P1-116/,108,1,1,1,3,3,9
Project1_csc216-001-P1-117/,109,2,2,3,3,3,13
Project1_csc216-001-P1-118/,110,3,2,2,3,3,13
Project1_csc216-001-P1-119/,111,3,3,3,3,3,15
Project1_csc216-001-P1-121/,113,3,3,3,3,3,15
Project1_csc216-001-P1-122/,114,3,3,3,3,3,15
Project1_csc216-001-P1-123/,115,3,3,3,3,3,15
Project1_csc216-001-P1-124/,116,3,3,3,3,3,15
Project1_csc216-001-P1-125/,117,3,3,3,3,3,15
Project1_csc216-001-P1-126/,118,3,3,3,3,3,15
Project1_csc216-001-P1-127/,119,3,3,3,3,3,15
Project1_csc216-001-P1-128/,120,3,3,3,3,3,15
Project1_csc216-001-P1-129/,121,3,3,3,3,3,15
Project1_csc216-001-P1-132/,123,3,3,3,3,3,15
Project1_csc216-001-P1-133/,124,2,2,3,2,3,12
Project1_csc216-002-P1-001/,125,1,3,3,3,3,13
Project1_csc216-002-P1-002/,126,1,1,1,3,3,9
Project1_csc216-002-P1-003/,127,3,3,3,3,3,15
Project1_csc216-002-P1-004/,128,2,1,3,3,3,12
Project1_csc216-002-P1-005/,129,1,1,3,3,3,11
Project1_csc216-002-P1-006/,130,2,3,3,3,3,14
Project1_csc216-002-P1-007/,131,3,2,3,3,3,14
Project1_csc216-002-P1-008/,132,2,2,3,3,3,13
Project1_csc216-002-P1-009/,133,3,3,3,3,3,15
Project1_csc216-002-P1-010/,134,2,3,3,3,3,14
Project1_csc216-002-P1-011/,135,3,3,2,3,3,14
Project1_csc216-002-P1-012/,136,2,2,3,3,3,13
Project1_csc216-002-P1-013/,137,3,2,3,3,3,14
Project1_csc216-002-P1-014/,138,3,3,3,3,3,15
Project1_csc216-002-P1-015/,139,1,2,3,3,3,12
Project1_csc216-002-P1-016/,140,0,2,2,3,3,10
Project1_csc216-002-P1-017/,141,2,2,1,3,3,11
Project1_csc216-002-P1-018/,142,2,2,1,3,3,11
Project1_csc216-002-P1-019/,143,1,2,2,3,3,11
Project1_csc216-002-P1-021/,145,1,1,3,3,3,11
Project1_csc216-002-P1-023/,147,1,2,3,3,3,12
Project1_csc216-002-P1-025/,149,2,3,3,3,3,14
Project1_csc216-002-P1-026/,150,2,2,1,3,3,11
Project1_csc216-002-P1-027/,151,1,2,3,3,3,12
Project1_csc216-002-P1-028/,152,3,1,1,3,3,11
Project1_csc216-002-P1-029/,153,1,2,1,3,3,10
Project1_csc216-002-P1-030/,154,3,2,3,3,3,14
Project1_csc216-002-P1-031/,155,3,3,3,3,3,15
Project1_csc216-002-P1-032/,156,1,1,3,3,3,11
Project1_csc216-002-P1-033/,157,3,2,3,3,3,14
Project1_csc216-002-P1-034/,158,3,3,3,3,3,15
Project1_csc216-002-P1-035/,159,1,2,3,3,3,12
Project1_csc216-002-P1-036/,160,3,2,3,3,3,14
Project1_csc216-002-P1-037/,161,3,2,3,3,3,14
Project1_csc216-002-P1-038/,162,1,2,2,3,3,11
Project1_csc216-002-P1-039/,163,3,3,3,3,3,15
Project1_csc216-002-P1-040/,164,3,3,3,3,3,15
Project1_csc216-002-P1-041/,165,2,3,3,3,3,14
Project1_csc216-002-P1-042/,166,1,2,2,3,3,11
Project1_csc216-002-P1-043/,167,3,2,3,3,3,14
Project1_csc216-002-P1-044/,168,3,2,3,3,3,14
Project1_csc216-002-P1-045/,169,3,3,3,3,3,15
Project1_csc216-002-P1-046/,170,1,2,2,3,3,11
Project1_csc216-002-P1-047/,171,1,2,2,3,3,11
Project1_csc216-002-P1-048/,172,3,2,3,3,3,14
Project1_csc216-002-P1-049/,173,3,3,3,3,3,15
Project1_csc216-002-P1-050/,174,3,3,3,3,3,15
Project1_csc216-002-P1-052/,176,3,3,2,3,3,14
Project1_csc216-002-P1-053/,177,3,3,2,3,3,14
Project1_csc216-002-P1-054/,178,3,1,2,3,3,12
Project1_csc216-002-P1-055/,179,2,2,2,3,3,12
Project1_csc216-002-P1-056/,180,3,2,2,3,3,13
Project1_csc216-002-P1-058/,181,3,2,2,3,3,13
Project1_csc216-002-P1-059/,182,2,2,2,3,3,12
Project1_csc216-002-P1-061/,183,2,3,3,3,3,14
Project1_csc216-002-P1-062/,184,3,3,3,3,3,15
Project1_csc216-002-P1-063/,185,3,3,3,3,3,15
Project1_csc216-002-P1-064/,186,3,3,3,3,3,15
Project1_csc216-002-P1-065/,187,3,3,3,3,3,15
Project1_csc216-002-P1-066/,188,3,3,3,3,3,15
Project1_csc216-002-P1-067/,189,3,3,3,3,3,15
Project1_csc216-002-P1-068/,190,3,3,3,3,3,15
Project1_csc216-002-P1-069/,191,3,3,3,3,3,15
Project1_csc216-002-P1-070/,192,3,3,3,3,3,15
Project1_csc216-002-P1-071/,193,3,3,3,3,3,15
Project1_csc216-002-P1-072/,194,3,3,3,3,3,15
Project1_csc216-002-P1-073/,195,3,3,3,3,3,15
Project1_csc216-002-P1-074/,196,3,3,3,3,3,15
Project1_csc216-002-P1-075/,197,3,3,3,3,3,15
Project1_csc216-002-P1-076/,198,3,3,3,3,3,15
Project1_csc216-002-P1-077/,199,3,3,3,3,3,15
Project1_csc216-002-P1-078/,200,3,3,3,3,3,15
Project1_csc216-002-P1-079/,201,3,3,3,3,3,15
Project1_csc216-002-P1-080/,202,3,3,3,3,3,15
Project1_csc216-002-P1-081/,203,3,3,3,3,3,15
Project1_csc216-002-P1-082/,204,3,3,3,3,3,15
Project1_csc216-002-P1-083/,205,3,3,3,3,3,15
Project1_csc216-002-P1-084/,206,3,3,3,3,3,15
Project1_csc216-002-P1-085/,207,3,3,3,3,3,15
Project1_csc216-002-P1-086/,208,3,3,3,3,3,15
Project1_csc216-002-P1-087/,209,3,3,3,3,3,15
Project1_csc216-002-P1-088/,210,3,3,3,3,3,15
Project1_csc216-002-P1-089/,211,3,3,3,3,3,15
Project1_csc216-002-P1-090/,212,3,3,3,3,3,15
Project1_csc216-002-P1-091/,213,3,2,2,3,3,13
Project1_csc216-002-P1-092/,214,3,3,3,3,3,15
Project1_csc216-002-P1-093/,215,2,3,2,3,3,13
Project1_csc216-002-P1-094/,216,2,2,3,3,3,13
Project1_csc216-002-P1-095/,217,3,3,3,3,3,15
Project1_csc216-002-P1-096/,218,3,2,3,3,3,14
Project1_csc216-002-P1-097/,219,3,1,3,3,3,13
Project1_csc216-002-P1-098/,220,3,3,3,3,3,15
Project1_csc216-002-P1-099/,221,2,3,3,3,3,14
Project1_csc216-002-P1-100/,222,2,2,3,3,3,13
Project1_csc216-002-P1-101/,223,3,3,3,3,3,15
Project1_csc216-002-P1-102/,224,3,3,2,3,3,14
Project1_csc216-002-P1-103/,225,2,2,3,3,3,13
Project1_csc216-002-P1-105/,226,3,2,3,3,3,14
Project1_csc216-002-P1-106/,227,3,3,3,3,3,15
Project1_csc216-002-P1-107/,228,1,2,3,3,2,11
Project1_csc216-002-P1-108/,229,3,2,3,3,3,14
Project1_csc216-002-P1-109/,230,0,0,0,0,0,0
Project1_csc216-002-P1-110/,231,2,2,3,3,3,13
Project1_csc216-002-P1-111/,232,2,2,3,3,3,13
Project1_csc216-002-P1-113/,233,0,0,2,3,3,8
Project1_csc216-002-P1-114/,234,3,3,3,3,3,15
Project1_csc216-002-P1-115/,235,3,3,3,3,3,15
Project1_csc216-002-P1-116/,236,3,2,3,3,3,14
Project1_csc216-002-P1-117/,237,2,2,2,3,3,12
Project1_csc216-002-P1-118/,238,3,3,3,3,3,15
Project1_csc216-002-P1-119/,239,2,3,3,3,3,14
Project1_csc216-002-P1-120/,240,3,3,3,3,3,15
Project1_csc216-002-P1-121/,241,1,3,3,3,3,13
Project1_csc216-002-P1-122/,242,3,3,3,3,3,15
Project1_csc216-002-P1-123/,243,3,3,3,3,3,15
Project1_csc216-002-P1-124/,244,3,3,3,3,3,15
Project1_csc216-002-P1-125/,245,3,3,3,3,3,15
Project1_csc216-002-P1-126/,246,3,3,3,3,3,15
Project1_csc216-002-P1-127/,247,3,3,3,3,3,15
Project1_csc216-002-P1-128/,248,3,3,3,3,3,15
Project1_csc216-002-P1-129/,249,3,3,3,3,3,15
Project1_csc216-002-P1-130/,250,3,3,3,3,3,15
Project1_csc216-002-P1-131/,251,3,3,3,3,3,15
Project1_csc216-002-P1-133/,253,2,2,3,3,3,13
Project1_csc216-601-P1-01/,254,3,2,3,3,3,14
Project1_csc216-601-P1-03/,255,2,3,3,3,3,14
Project1_csc216-601-P1-04/,256,3,3,3,3,3,15
Project1_csc216-601-P1-05/,257,2,2,3,3,3,13
Project1_csc216-601-P1-08/,258,2,3,1,3,3,12
Project1_csc216-601-P1-09/,259,2,2,3,3,3,13
Project1_csc216-601-P1-10/,260,3,2,2,3,3,13
Project1_csc216-601-P1-11/,261,3,3,3,3,3,15
Project1_csc216-601-P1-12/,262,3,2,3,3,3,14
Project1_csc216-601-P1-13/,263,3,2,3,3,3,14
Project1_csc216-601-P1-15/,264,3,2,2,3,3,13
Project1_csc216-601-P1-16/,265,3,3,3,3,3,15
Project1_csc216-601-P1-17/,266,3,2,3,3,3,14
Project1_csc216-601-P1-19/,267,3,3,3,3,3,15
Project1_csc216-601-P1-20/,268,3,3,3,3,3,15
Project1_csc216-601-P1-21/,269,3,3,3,3,3,15
Project1_csc216-601-P1-23/,270,3,2,2,3,3,13
Project1_csc216-601-P1-25/,271,3,0,1,3,3,10
Project1_csc216-601-P1-26/,272,1,1,1,3,3,9
Project1_csc216-601-P1-27/,273,3,2,3,3,3,14
Project1_csc216-601-P1-28/,274,3,3,3,3,3,15
Project1_csc216-601-P1-29/,275,3,3,3,3,3,15
Project1_csc216-601-P1-30/,276,3,3,3,3,3,15
Project1_csc216-601-P1-31/,277,3,3,3,3,3,15
Project1_csc216-601-P1-33/,278,3,3,3,3,3,15
Project1_csc216-601-P1-34/,279,3,3,3,3,3,15
Project1_csc216-601-P1-36/,281,2,3,3,3,3,14
Project1_csc216-601-P1-37/,282,3,3,3,3,3,15
Project1_csc216-601-P1-38/,283,3,3,3,3,3,15
Project2_csc216-001-P2-003/,287,3,3,3,3,3,15
Project2_csc216-001-P2-005/,289,3,3,3,3,3,15
Project2_csc216-001-P2-010/,293,3,3,3,3,3,15
Project2_csc216-001-P2-011/,294,3,3,3,3,3,15
Project2_csc216-001-P2-013/,296,3,3,3,3,3,15
Project2_csc216-001-P2-016/,299,1,1,1,3,3,9
Project2_csc216-001-P2-017/,300,3,3,3,3,3,15
Project2_csc216-001-P2-018/,301,3,3,3,3,3,15
Project2_csc216-001-P2-019/,302,3,3,3,3,3,15
Project2_csc216-001-P2-020/,303,0,3,0,0,0,3
Project2_csc216-001-P2-021/,304,3,2,3,3,3,14
Project2_csc216-001-P2-022/,305,2,2,3,3,3,13
Project2_csc216-001-P2-026/,308,3,3,3,3,3,15
Project2_csc216-001-P2-027/,309,1,2,3,3,3,12
Project2_csc216-001-P2-028/,310,3,2,3,3,3,14
Project2_csc216-001-P2-029/,311,2,2,3,3,3,13
Project2_csc216-001-P2-032/,313,3,2,3,3,3,14
Project2_csc216-001-P2-033/,314,1,2,3,3,3,12
Project2_csc216-001-P2-034/,315,3,1,1,3,3,11
Project2_csc216-001-P2-036/,317,2,2,2,3,3,12
Project2_csc216-001-P2-038/,319,3,3,3,3,3,15
Project2_csc216-001-P2-039/,320,3,2,2,3,3,13
Project2_csc216-001-P2-040/,321,3,2,3,3,3,14
Project2_csc216-001-P2-041/,322,3,3,3,3,3,15
Project2_csc216-001-P2-042/,323,3,3,3,3,3,15
Project2_csc216-001-P2-043/,324,3,3,3,3,3,15
Project2_csc216-001-P2-044/,325,3,3,3,3,3,15
Project2_csc216-001-P2-046/,327,3,3,3,3,3,15
Project2_csc216-001-P2-047/,328,3,3,3,3,3,15
Project2_csc216-001-P2-051/,330,3,3,3,3,3,15
Project2_csc216-001-P2-053/,332,3,3,3,3,3,15
Project2_csc216-001-P2-059/,337,3,3,3,3,3,15
Project2_csc216-001-P2-061/,339,3,3,3,3,3,15
Project2_csc216-001-P2-063/,340,1,1,1,3,3,9
Project2_csc216-001-P2-064/,341,1,2,3,3,3,12
Project2_csc216-001-P2-065/,342,1,1,0,3,3,8
Project2_csc216-001-P2-067/,343,1,1,3,3,3,11
Project2_csc216-001-P2-068/,344,1,1,3,3,3,11
Project2_csc216-001-P2-072/,348,3,3,2,3,3,14
Project2_csc216-001-P2-074/,350,3,3,3,3,3,15
Project2_csc216-001-P2-078/,354,1,1,3,3,3,11
Project2_csc216-001-P2-079/,355,1,1,3,3,3,11
Project2_csc216-001-P2-083/,358,1,2,2,3,3,11
Project2_csc216-001-P2-084/,359,3,3,3,3,3,15
Project2_csc216-001-P2-085/,360,2,3,3,3,3,14
Project2_csc216-001-P2-087/,362,3,2,3,3,3,14
Project2_csc216-001-P2-089/,364,3,2,3,3,3,14
Project2_csc216-001-P2-090/,365,3,3,3,3,3,15
Project2_csc216-001-P2-091/,366,2,2,3,3,3,13
Project2_csc216-001-P2-092/,367,3,1,3,3,3,13
Project2_csc216-001-P2-093/,368,3,2,3,3,3,14
Project2_csc216-001-P2-096/,370,3,3,3,3,3,15
Project2_csc216-001-P2-097/,371,3,2,3,3,3,14
Project2_csc216-001-P2-100/,374,3,2,3,3,3,14
Project2_csc216-001-P2-101/,375,0,0,0,0,0,0
Project2_csc216-001-P2-103/,377,1,2,3,3,3,12
Project2_csc216-001-P2-104/,378,3,2,3,3,3,14
Project2_csc216-001-P2-106/,379,1,2,3,3,3,12
Project2_csc216-001-P2-109/,381,3,3,3,3,3,15
Project2_csc216-001-P2-110/,382,3,2,3,3,3,14
Project2_csc216-001-P2-111/,383,3,3,2,3,3,14
Project2_csc216-001-P2-114/,386,3,3,3,3,3,15
Project2_csc216-001-P2-115/,387,3,2,3,3,3,14
Project2_csc216-001-P2-116/,388,3,1,3,3,3,13
Project2_csc216-001-P2-117/,389,3,2,3,3,3,14
Project2_csc216-001-P2-121/,393,3,3,3,3,3,15
Project2_csc216-001-P2-123/,395,3,3,3,3,3,15
Project2_csc216-001-P2-124/,396,3,3,3,3,3,15
Project2_csc216-001-P2-125/,397,3,3,3,3,3,15
Project2_csc216-001-P2-127/,399,3,3,3,3,3,15
Project2_csc216-001-P2-128/,400,3,3,3,3,3,15
Project2_csc216-002-P2-001/,405,3,3,3,3,3,15
Project2_csc216-002-P2-002/,406,3,3,3,3,3,15
Project2_csc216-002-P2-006/,410,3,3,3,3,3,15
Project2_csc216-002-P2-007/,411,3,3,3,3,3,15
Project2_csc216-002-P2-011/,415,2,2,2,3,3,12
Project2_csc216-002-P2-013/,417,3,3,3,3,3,15
Project2_csc216-002-P2-015/,419,3,3,3,3,3,15
Project2_csc216-002-P2-016/,420,3,2,2,3,3,13
Project2_csc216-002-P2-017/,421,2,1,1,3,3,10
Project2_csc216-002-P2-019/,423,1,1,0,3,3,8
Project2_csc216-002-P2-021/,425,2,2,1,3,3,11
Project2_csc216-002-P2-023/,426,0,0,0,3,3,6
Project2_csc216-002-P2-026/,429,3,2,0,3,3,11
Project2_csc216-002-P2-030/,433,3,2,3,3,3,14
Project2_csc216-002-P2-031/,434,3,0,3,3,3,12
Project2_csc216-002-P2-032/,435,1,2,1,3,3,10
Project2_csc216-002-P2-034/,437,3,3,3,3,3,15
Project2_csc216-002-P2-035/,438,3,2,2,3,3,13
Project2_csc216-002-P2-037/,440,3,2,3,3,3,14
Project2_csc216-002-P2-038/,441,1,1,1,3,3,9
Project2_csc216-002-P2-041/,444,3,3,3,3,3,15
Project2_csc216-002-P2-042/,445,3,3,3,3,3,15
Project2_csc216-002-P2-044/,447,3,3,3,3,3,15
Project2_csc216-002-P2-045/,448,3,3,3,3,3,15
Project2_csc216-002-P2-052/,455,3,3,3,3,3,15
Project2_csc216-002-P2-053/,456,3,3,3,3,3,15
Project2_csc216-002-P2-055/,458,3,3,3,3,3,15
Project2_csc216-002-P2-059/,461,3,3,3,3,3,15
Project2_csc216-002-P2-062/,463,2,3,3,3,3,14
Project2_csc216-002-P2-063/,464,2,1,3,3,3,12
Project2_csc216-002-P2-069/,470,3,3,3,3,3,15
Project2_csc216-002-P2-070/,471,2,2,3,3,3,13
Project2_csc216-002-P2-073/,474,1,2,2,3,3,11
Project2_csc216-002-P2-075/,476,2,3,2,3,3,13
Project2_csc216-002-P2-076/,477,3,3,3,3,3,15
Project2_csc216-002-P2-077/,478,1,2,3,3,3,12
Project2_csc216-002-P2-078/,479,3,3,3,3,3,15
Project2_csc216-002-P2-080/,481,3,1,3,3,3,13
Project2_csc216-002-P2-082/,483,2,2,2,3,3,12
Project2_csc216-002-P2-083/,484,1,2,1,3,3,10
Project2_csc216-002-P2-086/,487,2,2,3,3,3,13
Project2_csc216-002-P2-090/,491,3,2,3,3,3,14
Project2_csc216-002-P2-094/,494,3,3,3,3,3,15
Project2_csc216-002-P2-096/,496,3,2,3,3,3,14
Project2_csc216-002-P2-097/,497,0,0,0,0,0,0
Project2_csc216-002-P2-099/,499,3,2,3,3,3,14
Project2_csc216-002-P2-100/,500,2,1,1,3,3,10
Project2_csc216-002-P2-101/,501,3,2,3,3,3,14
Project2_csc216-002-P2-102/,502,3,2,3,3,3,14
Project2_csc216-002-P2-103/,503,3,2,3,3,3,14
Project2_csc216-002-P2-106/,505,3,3,3,3,3,15
Project2_csc216-002-P2-108/,507,3,2,3,3,3,14
Project2_csc216-002-P2-111/,510,2,2,3,3,3,13
Project2_csc216-002-P2-114/,512,3,3,3,3,3,15
Project2_csc216-002-P2-117/,515,3,2,3,3,3,14
Project2_csc216-002-P2-118/,516,3,3,3,3,3,15
Project2_csc216-002-P2-119/,517,3,3,3,3,3,15
Project2_csc216-002-P2-121/,518,3,3,3,3,3,15
Project2_csc216-002-P2-122/,519,3,3,3,3,3,15
Project2_csc216-002-P2-123/,520,3,3,3,3,3,15
Project2_csc216-002-P2-127/,523,3,3,3,3,3,15
Project2_csc216-002-P2-128/,524,3,3,3,3,3,15
Project2_csc216-002-P2-130/,526,3,3,3,3,3,15
Project2_csc216-002-P2-133/,529,3,3,3,3,3,15
Project2_csc216-601-P2-01/,530,3,3,3,3,3,15
Project2_csc216-601-P2-03/,531,3,3,2,3,3,14
Project2_csc216-601-P2-04/,532,3,3,3,3,3,15
Project2_csc216-601-P2-05/,533,3,3,3,3,3,15
Project2_csc216-601-P2-10/,536,2,2,3,3,3,13
Project2_csc216-601-P2-12/,538,3,2,3,3,3,14
Project2_csc216-601-P2-13/,539,3,3,3,3,3,15
Project2_csc216-601-P2-15/,540,3,3,3,3,3,15
Project2_csc216-601-P2-16/,541,3,3,3,3,3,15
Project2_csc216-601-P2-20/,544,1,1,3,3,3,11
Project2_csc216-601-P2-21/,545,3,3,2,3,3,14
Project2_csc216-601-P2-23/,546,3,2,2,3,3,13
Project2_csc216-601-P2-29/,550,3,3,3,3,3,15
Project2_csc216-601-P2-30/,551,3,3,3,3,3,15
Project2_csc216-601-P2-33/,552,3,3,3,3,3,15
Project2_csc216-601-P2-34/,553,3,3,3,3,3,15
Project2_csc216-601-P2-36/,554,3,3,3,3,3,15
Project2_csc216-601-P2-37/,555,3,3,3,3,3,15
Project2_csc216-601-P2-38/,556,3,3,3,3,3,15
Project3_csc216-P3-001/,557,3,2,3,3,3,14
Project3_csc216-P3-002/,558,3,2,3,3,3,14
Project3_csc216-P3-003/,559,3,3,3,3,3,15
Project3_csc216-P3-004/,560,3,3,3,3,3,15
Project3_csc216-P3-005/,561,3,2,3,3,3,14
Project3_csc216-P3-006/,562,3,3,3,3,3,15
Project3_csc216-P3-007/,563,3,2,3,3,3,14
Project3_csc216-P3-008/,564,3,2,3,3,3,14
Project3_csc216-P3-009/,565,1,2,3,3,3,12
Project3_csc216-P3-010/,566,3,2,3,3,3,14
Project3_csc216-P3-011/,567,3,3,3,3,3,15
Project3_csc216-P3-012/,568,3,2,3,3,3,14
Project3_csc216-P3-013/,569,3,2,3,3,3,14
Project3_csc216-P3-014/,570,3,3,3,3,3,15
Project3_csc216-P3-015/,571,1,2,3,3,3,12
Project3_csc216-P3-016/,572,3,3,3,3,3,15
Project3_csc216-P3-017/,573,3,3,3,3,3,15
Project3_csc216-P3-018/,574,2,2,3,3,3,13
Project3_csc216-P3-019/,575,1,1,3,3,3,11
Project3_csc216-P3-020/,576,2,1,3,3,3,12
Project3_csc216-P3-021/,577,3,2,3,3,3,14
Project3_csc216-P3-022/,578,2,3,3,3,3,14
Project3_csc216-P3-023/,579,1,2,3,3,3,12
Project3_csc216-P3-024/,580,1,3,3,3,3,13
Project3_csc216-P3-025/,581,1,2,3,3,3,12
Project3_csc216-P3-026/,582,1,2,3,3,3,12
Project3_csc216-P3-027/,583,1,3,3,3,3,13
Project3_csc216-P3-028/,584,1,2,2,3,3,11
Project3_csc216-P3-029/,585,3,3,3,3,3,15
Project3_csc216-P3-030/,586,3,3,3,3,3,15
Project3_csc216-P3-031/,587,3,3,3,3,3,15
Project3_csc216-P3-032/,588,3,2,3,3,3,14
Project3_csc216-P3-033/,589,3,3,2,3,3,14
Project3_csc216-P3-034/,590,3,3,3,3,3,15
Project3_csc216-P3-035/,591,3,3,3,3,3,15
Project3_csc216-P3-036/,592,2,3,3,3,3,14
Project3_csc216-P3-037/,593,3,1,3,3,3,13
Project3_csc216-P3-038/,594,1,2,3,3,3,12
Project3_csc216-P3-039/,595,1,1,3,3,3,11
Project3_csc216-P3-040/,596,2,2,3,3,3,13
Project3_csc216-P3-041/,597,3,3,3,3,3,15
Project3_csc216-P3-042/,598,1,2,3,3,3,12
Project3_csc216-P3-043/,599,1,2,3,3,3,12
Project3_csc216-P3-044/,600,3,3,3,3,3,15
Project3_csc216-P3-045/,601,3,3,3,3,3,15
Project3_csc216-P3-046/,602,3,3,3,3,3,15
Project3_csc216-P3-047/,603,3,3,3,3,3,15
Project3_csc216-P3-048/,604,3,3,3,3,3,15
Project3_csc216-P3-049/,605,3,3,3,3,3,15
Project3_csc216-P3-050/,606,3,3,3,3,3,15
Project3_csc216-P3-051/,607,3,3,3,3,3,15
Project3_csc216-P3-052/,608,2,3,3,3,3,14
Project3_csc216-P3-053/,609,3,3,3,3,3,15
Project3_csc216-P3-054/,610,1,1,1,1,1,5
Project3_csc216-P3-055/,611,3,3,3,3,3,15
Project3_csc216-P3-056/,612,3,3,3,3,3,15
Project3_csc216-P3-057/,613,3,3,3,3,3,15
Project3_csc216-P3-058/,614,3,3,3,3,3,15
Project3_csc216-P3-059/,615,3,3,3,3,3,15
Project3_csc216-P3-060/,616,3,3,3,3,3,15
Project3_csc216-P3-061/,617,3,3,3,3,3,15
Project3_csc216-P3-062/,618,3,2,2,3,3,13
Project3_csc216-P3-063/,619,3,2,2,3,3,13
Project3_csc216-P3-064/,620,3,2,2,3,3,13
Project3_csc216-P3-065/,621,3,2,3,3,3,14
Project3_csc216-P3-066/,622,3,2,3,3,3,14
Project3_csc216-P3-067/,623,2,2,3,3,3,13
Project3_csc216-P3-068/,624,3,3,3,3,3,15
Project3_csc216-P3-069/,625,3,3,3,3,3,15
Project3_csc216-P3-070/,626,1,1,1,3,3,9
Project3_csc216-P3-071/,627,1,0,3,3,3,10
Project3_csc216-P3-072/,628,3,2,3,3,3,14
Project3_csc216-P3-073/,629,3,2,3,3,3,14
Project3_csc216-P3-074/,630,3,3,3,3,3,15
Project3_csc216-P3-075/,631,3,2,1,3,3,12
Project3_csc216-P3-076/,632,3,1,1,3,3,11
Project3_csc216-P3-077/,633,3,1,3,3,3,13
Project3_csc216-P3-078/,634,3,3,3,3,3,15
Project3_csc216-P3-079/,635,3,1,2,3,3,12
Project3_csc216-P3-080/,636,3,2,3,3,3,14
Project3_csc216-P3-081/,637,3,1,0,3,3,10
Project3_csc216-P3-082/,638,3,1,1,3,3,11
Project3_csc216-P3-083/,639,2,3,2,3,3,13
Project3_csc216-P3-084/,640,3,3,2,3,3,14
Project3_csc216-P3-085/,641,2,2,2,3,3,12
Project3_csc216-P3-086/,642,3,3,3,3,3,15
Project3_csc216-P3-087/,643,3,3,3,3,3,15
Project3_csc216-P3-088/,644,2,3,3,3,3,14
Project3_csc216-P3-089/,645,3,3,3,3,3,15
Project3_csc216-P3-090/,646,2,2,3,3,3,13
Project3_csc216-P3-091/,647,2,2,2,3,3,12
Project3_csc216-P3-092/,648,1,1,1,3,3,9
Project3_csc216-P3-093/,649,1,1,1,3,3,9
Project3_csc216-P3-094/,650,2,3,2,3,3,13
Project3_csc216-P3-095/,651,3,3,3,3,3,15
Project3_csc216-P3-096/,652,3,3,3,3,3,15
Project3_csc216-P3-097/,653,3,3,3,3,3,15
Project3_csc216-P3-098/,654,3,3,3,3,3,15
Project3_csc216-P3-099/,655,3,3,3,3,3,15
Project3_csc216-P3-100/,656,3,3,3,3,3,15
Project3_csc216-P3-101/,657,3,3,3,3,3,15
Project3_csc216-P3-102/,658,3,3,3,3,3,15
Project3_csc216-P3-103/,659,3,3,3,3,3,15
Project3_csc216-P3-104/,660,3,3,3,3,3,15
Project3_csc216-P3-105/,661,2,3,3,3,3,14
Project3_csc216-P3-106/,662,3,3,3,3,3,15
Project3_csc216-P3-107/,663,3,3,3,3,3,15
Project3_csc216-P3-108/,664,3,3,3,3,3,15
Project3_csc216-P3-109/,665,2,3,3,3,3,14
Project3_csc216-P3-110/,666,3,3,3,3,3,15
Project3_csc216-P3-129/,685,0,0,0,0,0,0
Project3_csc216-601-P3-01/,690,3,3,3,3,3,15
Project3_csc216-601-P3-03/,691,3,3,3,3,3,15
Project3_csc216-601-P3-04/,692,3,3,3,3,3,15
Project3_csc216-601-P3-05/,693,2,1,1,3,3,10
Project3_csc216-601-P3-10/,696,3,3,3,3,3,15
Project3_csc216-601-P3-11/,697,3,3,3,3,3,15
Project3_csc216-601-P3-12/,698,2,3,3,3,3,14
Project3_csc216-601-P3-13/,699,1,2,3,3,3,12
Project3_csc216-601-P3-15/,700,3,3,3,3,3,15
Project3_csc216-601-P3-16/,701,3,3,3,3,3,15
Project3_csc216-601-P3-20/,704,2,2,3,3,3,13
Project3_csc216-601-P3-21/,705,2,0,0,3,3,8
Project3_csc216-601-P3-23/,706,3,3,3,3,3,15
Project3_csc216-601-P3-29/,710,3,2,3,3,3,14
Project3_csc216-601-P3-30/,711,3,3,2,3,3,14
Project3_csc216-601-P3-33/,712,3,3,3,3,3,15
Project3_csc216-601-P3-34/,713,1,2,1,3,3,10
Project3_csc216-601-P3-36/,714,2,2,0,3,2,9
Project3_csc216-601-P3-37/,715,3,2,3,3,3,14
Project3_csc216-601-P3-38/,716,3,2,3,3,3,14
